<svg version="1.1" id="svg3448" viewBox="0 0 25 25" height="25" width="25" xmlns="http://www.w3.org/2000/svg">
    <path d="M0 12.5h25" id="path1" stroke="param(outline) #000" stroke-width="param(outline-width) 1"/>
    <rect y="4.46" x="3.7" height="16.09" width="17.74" id="rect3466" fill="param(fill) #fff" stroke="param(outline) #000" stroke-width="1.2"/>
    <path id="path3490" d="M4.77 19.57 20.5 5.43" stroke="param(outline) #000" stroke-width="1.2" stroke-linecap="square" stroke-linejoin="miter" />
    <path id="path3492" d="M20.43 19.53 4.59 5.47" stroke="param(outline) #000" stroke-width="1.2" stroke-linecap="square" stroke-linejoin="miter"/>
</svg>
