[TITLE]
;;Project Title/Notes
Example 6
Runoff Treatment
Final Design

[OPTIONS]
;;Option            	Value
FLOW_UNITS          	CFS
INFILTRATION        	HORTON
FLOW_ROUTING        	DYNWAVE
LINK_OFFSETS        	DEPTH
MIN_SLOPE           	0
ALLOW_PONDING       	NO
SKIP_STEADY_STATE   	NO

START_DATE          	01/01/2007
START_TIME          	00:00:00
REPORT_START_DATE   	01/01/2007
REPORT_START_TIME   	00:00:00
END_DATE            	01/03/2007
END_TIME            	00:00:00
SWEEP_START         	01/01
SWEEP_END           	12/31
DRY_DAYS            	5
REPORT_STEP         	00:01:00
WET_STEP            	00:01:00
DRY_STEP            	01:00:00
ROUTING_STEP        	0:00:15 
RULE_STEP           	00:00:00

INERTIAL_DAMPING    	PARTIAL
NORMAL_FLOW_LIMITED 	SLOPE
FORCE_MAIN_EQUATION 	H-W
VARIABLE_STEP       	0.75
LENGTHENING_STEP    	0
MIN_SURFAREA        	12.566
MAX_TRIALS          	8
HEAD_TOLERANCE      	0.005
SYS_FLOW_TOL        	5
LAT_FLOW_TOL        	5
MINIMUM_STEP        	0.5
THREADS             	1

[FILES]
;;Interfacing Files
SAVE	HOTSTART	"Example6-Final_MP.hsf"

[EVAPORATION]
;;Data Source   	Parameters
;;--------------	----------------
MONTHLY         	1     	2     	3     	2     	1     	0     	1     	2     	3     	2     	1     	0.0   
DRY_ONLY        	NO

[RAINGAGES]
;;Name          	Format   	Interval	SCF     	Source    
;;--------------	---------	------	------	----------
;RainGage         INTENSITY 0:05     1.0      TIMESERIES 0.1-in
Null            	INTENSITY	1:00    	1.0     	TIMESERIES	Null            
RainGage        	INTENSITY	0:05    	1.0     	FILE      	"Record.dat"    	053005    	IN   

[SUBCATCHMENTS]
;;Name          	Rain Gage       	Outlet          	Area    	%Imperv 	Width   	%Slope  	CurbLen 	SnowPack        
;;--------------	----------------	----------------	--------	--------	--------	--------	--------	----------------
S5              	RainGage        	J10             	4.79    	87.7    	1670    	2       	2480    	                
S6              	RainGage        	J11             	1.98    	95.0    	690     	2       	1100    	                
S7              	RainGage        	J10             	2.33    	0.0     	907     	3.1     	565     	                
S3.1            	RainGage        	J3              	1.29    	0       	614     	4.7     	0       	                
S3.2            	RainGage        	S_FS_1          	1.02    	65      	349     	2       	430     	                
S3.3            	RainGage        	S_FS_2          	1.38    	58      	489     	2       	500     	                
S4.1            	RainGage        	J6              	1.65    	0       	580     	5       	0       	                
S4.2            	RainGage        	S_FS_3          	0.79    	70      	268     	2       	400     	                
S4.3            	RainGage        	S_FS_4          	1.91    	65      	657     	2       	1150    	                
S4.4            	RainGage        	J9              	2.40    	69      	839     	2       	700     	                
S_FS_1          	Null            	J15             	0.038   	0       	410     	2       	0       	                
S_FS_2          	Null            	J17             	0.043   	0       	463     	2       	0       	                
S_FS_3          	Null            	J16             	0.025   	0       	267     	2       	0       	                
S_FS_4          	Null            	J16             	0.082   	0       	894     	2       	0       	                
S1.1            	RainGage        	J12             	1.21    	65      	422     	2       	450     	                
S1.2            	RainGage        	S_IT_1          	1.46    	65      	509     	2       	600     	                
S1.3            	RainGage        	S_IT_2          	1.88    	45      	655     	2       	630     	                
S2.1            	RainGage        	J14             	1.30    	45      	453     	2       	450     	                
S2.2            	RainGage        	S_IT_3          	1.50    	70      	523     	2       	600     	                
S2.3            	RainGage        	S_IT_4          	1.88    	70      	655     	2       	630     	                
S_IT_1          	Null            	J1              	0.031   	0       	3       	0.422   	0       	                
S_IT_2          	Null            	J1              	0.033   	0       	3       	0.422   	0       	                
S_IT_3          	Null            	J13             	0.031   	0       	3       	0.444   	0       	                
S_IT_4          	Null            	J13             	0.032   	0       	3       	0.468   	0       	                

[SUBAREAS]
;;Subcatchment  	N-Imperv  	N-Perv    	S-Imperv  	S-Perv    	PctZero   	RouteTo   	PctRouted 
;;--------------	----------	----------	----------	----------	----------	----------	----------
S5              	0.015     	0.24      	0.06      	0.3       	25        	OUTLET    
S6              	0.015     	0.24      	0.06      	0.3       	25        	OUTLET    
S7              	0.015     	0.24      	0.06      	0.3       	25        	OUTLET    
S3.1            	0.015     	0.24      	0.06      	0.3       	25        	OUTLET    
S3.2            	0.015     	0.24      	0.06      	0.3       	25        	OUTLET    
S3.3            	0.015     	0.24      	0.06      	0.3       	25        	OUTLET    
S4.1            	0.015     	0.24      	0.06      	0.3       	25        	OUTLET    
S4.2            	0.015     	0.24      	0.06      	0.3       	25        	OUTLET    
S4.3            	0.015     	0.24      	0.06      	0.3       	25        	OUTLET    
S4.4            	0.015     	0.24      	0.06      	0.3       	25        	OUTLET    
S_FS_1          	0.015     	0.24      	0.06      	0.3       	25        	OUTLET    
S_FS_2          	0.015     	0.24      	0.06      	0.3       	25        	OUTLET    
S_FS_3          	0.015     	0.24      	0.06      	0.3       	25        	OUTLET    
S_FS_4          	0.015     	0.24      	0.06      	0.3       	25        	OUTLET    
S1.1            	0.015     	0.24      	0.06      	0.3       	25        	OUTLET    
S1.2            	0.015     	0.24      	0.06      	0.3       	25        	OUTLET    
S1.3            	0.015     	0.24      	0.06      	0.3       	25        	OUTLET    
S2.1            	0.015     	0.24      	0.06      	0.3       	25        	OUTLET    
S2.2            	0.015     	0.24      	0.06      	0.3       	25        	OUTLET    
S2.3            	0.015     	0.24      	0.06      	0.3       	25        	OUTLET    
S_IT_1          	0.015     	0.24      	0.06      	14.4      	25        	OUTLET    
S_IT_2          	0.015     	0.24      	0.06      	14.4      	25        	OUTLET    
S_IT_3          	0.015     	0.24      	0.06      	14.4      	25        	OUTLET    
S_IT_4          	0.015     	0.24      	0.06      	14.4      	25        	OUTLET    

[INFILTRATION]
;;Subcatchment  	Param1    	Param2    	Param3    	Param4    	Param5    
;;--------------	----------	----------	----------	----------	----------
S5              	4.5       	0.2       	6.5       	7         	0         
S6              	4.5       	0.2       	6.5       	7         	0         
S7              	4.5       	0.2       	6.5       	7         	0         
S3.1            	4.5       	0.2       	6.5       	7         	0         
S3.2            	4.5       	0.2       	6.5       	7         	0         
S3.3            	4.5       	0.2       	6.5       	7         	0         
S4.1            	4.5       	0.2       	6.5       	7         	0         
S4.2            	4.5       	0.2       	6.5       	7         	0         
S4.3            	4.5       	0.2       	6.5       	7         	0         
S4.4            	4.5       	0.2       	6.5       	7         	0         
S_FS_1          	0.2       	0.2       	6.5       	7         	0         
S_FS_2          	0.2       	0.2       	6.5       	7         	0         
S_FS_3          	0.2       	0.2       	6.5       	7         	0         
S_FS_4          	0.2       	0.2       	6.5       	7         	0         
S1.1            	4.5       	0.2       	6.5       	7         	0         
S1.2            	4.5       	0.2       	6.5       	7         	0         
S1.3            	4.5       	0.2       	6.5       	7         	0         
S2.1            	4.5       	0.2       	6.5       	7         	0         
S2.2            	4.5       	0.2       	6.5       	7         	0         
S2.3            	4.5       	0.2       	6.5       	7         	0         
S_IT_1          	0.2       	0.2       	6.5       	7         	0         
S_IT_2          	0.2       	0.2       	6.5       	7         	0         
S_IT_3          	0.2       	0.2       	6.5       	7         	0         
S_IT_4          	0.2       	0.2       	6.5       	7         	0         

[LID_CONTROLS]
;;Name          	Type/Layer	Parameters
;;--------------	----------	----------
LID1            	PP
LID1            	SURFACE   	1         	0.1       	0.1       	1.0       	5         
LID1            	PAVEMENT  	2         	0.15      	0         	100       	10        	0         	0         
LID1            	SOIL      	2         	0.5       	0.2       	0.1       	0.5       	30        	3.5       
LID1            	STORAGE   	2         	0.75      	0.5       	0         	NO        
LID1            	DRAIN     	0         	0         	0         	6         	0         	0         	          
LID1            	REMOVALS  	TSS       	1         

[LID_USAGE]
;;Subcatchment  	LID Process     	Number 	Area      	Width     	InitSat   	FromImp   	ToPerv    	RptFile                 	DrainTo         	FromPerv  
;;--------------	----------------	-------	----------	----------	----------	----------	----------	------------------------	----------------	----------

[AQUIFERS]
;;Name          	Por   	WP    	FC    	Ksat  	Kslope	Tslope	ETu   	ETs   	Seep  	Ebot  	Egw   	Umc   	ETupat 
;;--------------	------	------	------	------	------	------	------	------	------	------	------	------	------
1               	0.5   	0.15  	0.30  	0.1   	12    	15.0  	0.35  	14.0  	0.002 	0.0   	3.5   	0.40  	      

[GROUNDWATER]
;;Subcatchment  	Aquifer         	Node            	Esurf 	A1    	B1    	A2    	B2    	A3    	Dsw   	Egwt  	Ebot  	Wgr   	Umc   
;;--------------	----------------	----------------	------	------	------	------	------	------	------	------	------	------	------
S5              	1               	J2              	6     	0.1   	1     	0     	0     	0     	0     	4     

[SNOWPACKS]
;;Name          	Surface   	Parameters
;;--------------	----------	----------
SP1             	PLOWABLE  	0.001     	0.001     	32.0      	0.10      	0.00      	0.00      	0.0       
SP1             	IMPERVIOUS	0.001     	0.001     	32.0      	0.10      	0.00      	0.00      	0.00      
SP1             	PERVIOUS  	0.001     	0.001     	32.0      	0.10      	0.00      	0.00      	0.00      
SP1             	REMOVAL   	1.0       	0.2       	0.2       	0.2       	0.2       	0.0       	

[JUNCTIONS]
;;Name          	Elevation 	MaxDepth  	InitDepth 	SurDepth  	Aponded   
;;--------------	----------	----------	----------	----------	----------
J1              	4973      	0         	0         	0         	0         
J2              	4969      	0         	0         	0         	0         
J3              	4973      	0         	0         	0         	0         
J4              	4971      	0         	0         	0         	0         
J5              	4969.8    	0         	0         	0         	0         
J6              	4969      	0         	0         	0         	0         
J7              	4971.5    	0         	0         	0         	0         
J8              	4966.5    	0         	0         	0         	0         
J9              	4964.8    	0         	0         	0         	0         
J10             	4963.8    	0         	0         	0         	0         
J11             	4963      	0         	0         	0         	0         
J12             	4973.8    	0         	0         	0         	0         
J13             	4970.7    	0         	0         	0         	0         
J14             	4972.9    	0         	0         	0         	0         
J15             	4974.5    	0         	0         	0         	0         
J16             	4973.5    	0         	0         	0         	0         
J17             	4973.5    	0         	0         	0         	0         
J_out           	4954      	0         	0         	0         	0         

[OUTFALLS]
;;Name          	Elevation 	Type      	Stage Data      	Gated   	Route To        
;;--------------	----------	----------	----------------	--------	----------------
O2              	4954      	FREE      	                	NO      	                

[STORAGE]
;;Name          	Elev.   	MaxDepth  	InitDepth 	Shape     	Curve Type/Params           	SurDepth 	Fevap   	Psi     	Ksat    	IMD     
;;--------------	--------	----------	-----------	----------	----------------------------	---------	--------	        	--------	--------
SU2             	4956    	6         	0         	TABULAR   	SU2                         	0        	0       

[CONDUITS]
;;Name          	From Node       	To Node         	Length    	Roughness 	InOffset  	OutOffset 	InitFlow  	MaxFlow   
;;--------------	----------------	----------------	----------	----------	----------	----------	----------	----------
C1              	J1              	J5              	185.00    	0.05      	0         	0         	0         	0         
C2              	J2              	J11             	526.00    	0.016     	0         	4         	0         	0         
C3              	J3              	J4              	109.00    	0.016     	0         	0         	0         	0         
C4              	J4              	J5              	133.00    	0.05      	0         	0         	0         	0         
C5              	J5              	J6              	207.00    	0.05      	0         	0         	0         	0         
C6              	J7              	J6              	140.00    	0.05      	0         	0         	0         	0         
C7              	J6              	J8              	95.00     	0.016     	0         	0         	0         	0         
C8              	J8              	J9              	166.00    	0.05      	0         	0         	0         	0         
C9              	J9              	J10             	320.00    	0.05      	0         	0         	0         	0         
C10             	J10             	J11             	145.00    	0.05      	0         	0         	0         	0         
C11             	J11             	SU2             	89.00     	0.016     	0         	1         	0         	0         
C12             	J12             	J1              	281.7     	0.05      	0         	0         	0         	0         
C13             	J14             	J13             	275.7     	0.016     	0         	0         	0         	0         
C14             	J13             	J2              	157.48    	0.016     	0         	0         	0         	0         
C15             	J15             	J3              	444.75    	0.05      	0         	0         	0         	0         
C16             	J17             	J5              	200.16    	0.05      	0         	0         	0         	0         
C17             	J16             	J7              	300.42    	0.016     	0         	0         	0         	0         
C_out           	J_out           	O2              	100       	0.01      	0         	0         	0         	0         

[ORIFICES]
;;Name          	From Node       	To Node         	Type        	Offset    	Qcoeff    	Gated   	CloseTime 
;;--------------	----------------	----------------	------------	----------	----------	--------	----------
Or1             	SU2             	J_out           	SIDE        	0         	0.65      	NO      	0         
Or2             	SU2             	J_out           	SIDE        	1.5       	0.65      	NO      	0         

[WEIRS]
;;Name          	From Node       	To Node         	Type        	CrestHt   	Qcoeff    	Gated   	EndCon  	EndCoeff  	Surcharge 	RoadWidth 	RoadSurf  	Coeff. Curve
;;--------------	----------------	----------------	------------	----------	----------	--------	--------	----------	----------	----------	----------	----------------
W1              	SU2             	J_out           	TRANSVERSE  	3.28      	3.3       	NO      	0       	0         	YES       

[XSECTIONS]
;;Link          	Shape       	Geom1           	Geom2     	Geom3     	Geom4     	Barrels   	Culvert   
;;--------------	------------	----------------	----------	----------	----------	----------	----------
C1              	TRAPEZOIDAL 	3               	5         	5         	5         	1         	          
C2              	TRAPEZOIDAL 	1.5             	0         	0.0001    	25        	1         	          
C3              	CIRCULAR    	2.25            	0         	0         	0         	1         	          
C4              	TRAPEZOIDAL 	3               	5         	5         	5         	1         	          
C5              	TRAPEZOIDAL 	3               	5         	5         	5         	1         	          
C6              	TRAPEZOIDAL 	3               	5         	5         	5         	1         	          
C7              	CIRCULAR    	3.5             	0         	0         	0         	1         	          
C8              	TRAPEZOIDAL 	3               	5         	5         	5         	1         	          
C9              	TRAPEZOIDAL 	3               	5         	5         	5         	1         	          
C10             	TRAPEZOIDAL 	3               	5         	5         	5         	1         	          
C11             	CIRCULAR    	4.75            	0         	0         	0         	1         	          
C12             	TRAPEZOIDAL 	3               	5         	5         	5         	1         	          
C13             	TRAPEZOIDAL 	1.5             	0         	0.0001    	25        	1         	          
C14             	TRAPEZOIDAL 	1.5             	0         	0.0001    	25        	1         	          
C15             	TRAPEZOIDAL 	3               	5         	5         	5         	1         	          
C16             	TRAPEZOIDAL 	3               	5         	5         	5         	1         	          
C17             	TRAPEZOIDAL 	1.5             	0         	0.0001    	25        	1         	          
C_out           	CIRCULAR    	4.75            	0         	0         	0         	1         	          
Or1             	RECT_CLOSED 	0.16            	0.25      	0         	0
Or2             	RECT_CLOSED 	0.5             	2.25      	0         	0
W1              	RECT_OPEN   	2.72            	1.6       	0         	0         

[POLLUTANTS]
;;Name          	Units 	Crain     	Cgw       	Crdii     	Kdecay    	SnowOnly  	Co-Pollutant    	Co-Frac   	Cdwf      	Cinit     
;;--------------	------	----------	----------	----------	----------	----------	----------------	----------	----------	----------
TSS             	MG/L  	10        	0.0       	0.0       	0.0       	NO        	*               	0.0       	0         	0         

[LANDUSES]
;;              	Sweeping  	Fraction  	Last      
;;Name          	Interval  	Available 	Swept     
;;--------------	----------	----------	----------
Residential_1   	0         	0         	0         
Residential_2   	0         	0         	0         
Commercial      	0         	0         	0         
LID             	0         	0         	0         

[COVERAGES]
;;Subcatchment  	Land Use        	Percent   
;;--------------	----------------	----------
S5              	Commercial      	98        
S6              	Commercial      	100       
S3.2            	Residential_1   	100       
S3.3            	Residential_2   	85        
S4.2            	Residential_2   	100       
S4.3            	Residential_1   	36        
S4.3            	Residential_2   	64        
S4.4            	Commercial      	71        
S_FS_1          	LID             	100       
S_FS_2          	LID             	100       
S_FS_3          	LID             	100       
S_FS_4          	LID             	100       
S1.1            	Residential_1   	100       
S1.2            	Residential_1   	100       
S1.3            	Residential_1   	100       
S2.1            	Residential_1   	100       
S2.2            	Residential_2   	100       
S2.3            	Residential_2   	100       
S_IT_1          	LID             	100       
S_IT_2          	LID             	100       
S_IT_3          	LID             	100       
S_IT_4          	LID             	100       

[LOADINGS]
;;Subcatchment  	Pollutant       	Buildup   
;;--------------	----------------	----------

[BUILDUP]
;;Land Use      	Pollutant       	Function  	Coeff1    	Coeff2    	Coeff3    	Per Unit  
;;--------------	----------------	----------	----------	----------	----------	----------
Residential_1   	TSS             	EXP       	0.11      	0.5       	0.0       	CURB      
Residential_2   	TSS             	EXP       	0.13      	0.5       	0.0       	CURB      
Commercial      	TSS             	EXP       	0.15      	0.2       	0.0       	CURB      
LID             	TSS             	NONE      	0.0       	0.0       	0.0       	AREA      

[WASHOFF]
;;Land Use      	Pollutant       	Function  	Coeff1    	Coeff2    	SweepRmvl 	BmpRmvl   
;;--------------	----------------	----------	----------	----------	----------	----------
Residential_1   	TSS             	EMC       	160       	0         	0.0       	0.0       
Residential_2   	TSS             	EMC       	200       	0         	0.0       	0.0       
Commercial      	TSS             	EMC       	180       	0         	0.0       	0.0       
LID             	TSS             	EMC       	0.0       	0.0       	0.0       	70.0      

[TREATMENT]
;;Node          	Pollutant       	Function  
;;--------------	----------------	----------
SU2             	TSS             	C = 20 + (TSS-20) * EXP(-0.01/3600/DEPTH*DT)

[HYDROGRAPHS]
;;Hydrograph    	Rain Gage/Month 	Response	R       	T       	K       	Dmax    	Drecov  	Dinit   
;;--------------	----------------	--------	--------	--------	--------	--------	--------	--------
UH1             	RainGage        
UH1             	All             	Short   	1       	1       	1       	0       	0       	0       
UH1             	All             	Medium  	1       	1       	1       	0       	0       	0       
UH1             	All             	Long    	1       	1       	1       	0       	0       	0       
UH1             	Mar             	Short   	0       	2       	0       	0       	0       	0       
UH1             	Mar             	Medium  	0       	2       	0       	0       	0       	0       
UH1             	Mar             	Long    	0       	1       	0       	0       	0       	0       


[CURVES]
;;Name          	Type      	X-Value   	Y-Value   
;;--------------	----------	----------	----------
SU2             	Storage   	0         	10368     
SU2             	          	2.2       	14512     
SU2             	          	2.3       	32000     
SU2             	          	6         	50000     

[TIMESERIES]
;;Name          	Date      	Time      	Value     
;;--------------	----------	----------	----------
2-yr            	          	0:00      	0.29      
2-yr            	          	0:05      	0.33      
2-yr            	          	0:10      	0.38      
2-yr            	          	0:15      	0.64      
2-yr            	          	0:20      	0.81      
2-yr            	          	0:25      	1.57      
2-yr            	          	0:30      	2.85      
2-yr            	          	0:35      	1.18      
2-yr            	          	0:40      	0.71      
2-yr            	          	0:45      	0.42      
2-yr            	          	0:50      	0.35      
2-yr            	          	0:55      	0.3       
2-yr            	          	1:00      	0.2       
2-yr            	          	1:05      	0.19      
2-yr            	          	1:10      	0.18      
2-yr            	          	1:15      	0.17      
2-yr            	          	1:20      	0.17      
2-yr            	          	1:25      	0.16      
2-yr            	          	1:30      	0.15      
2-yr            	          	1:35      	0.15      
2-yr            	          	1:40      	0.14      
2-yr            	          	1:45      	0.14      
2-yr            	          	1:50      	0.13      
2-yr            	          	1:55      	0.13      
;
10-yr           	          	0:00      	0.49      
10-yr           	          	0:05      	0.56      
10-yr           	          	0:10      	0.65      
10-yr           	          	0:15      	1.09      
10-yr           	          	0:20      	1.39      
10-yr           	          	0:25      	2.69      
10-yr           	          	0:30      	4.87      
10-yr           	          	0:35      	2.02      
10-yr           	          	0:40      	1.21      
10-yr           	          	0:45      	0.71      
10-yr           	          	0:50      	0.6       
10-yr           	          	0:55      	0.52      
10-yr           	          	1:00      	0.39      
10-yr           	          	1:05      	0.37      
10-yr           	          	1:10      	0.35      
10-yr           	          	1:15      	0.34      
10-yr           	          	1:20      	0.32      
10-yr           	          	1:25      	0.31      
10-yr           	          	1:30      	0.3       
10-yr           	          	1:35      	0.29      
10-yr           	          	1:40      	0.28      
10-yr           	          	1:45      	0.27      
10-yr           	          	1:50      	0.26      
10-yr           	          	1:55      	0.25      
;
100-yr          	          	0:00      	1         
100-yr          	          	0:05      	1.14      
100-yr          	          	0:10      	1.33      
100-yr          	          	0:15      	2.23      
100-yr          	          	0:20      	2.84      
100-yr          	          	0:25      	5.49      
100-yr          	          	0:30      	9.95      
100-yr          	          	0:35      	4.12      
100-yr          	          	0:40      	2.48      
100-yr          	          	0:45      	1.46      
100-yr          	          	0:50      	1.22      
100-yr          	          	0:55      	1.06      
100-yr          	          	1:00      	1         
100-yr          	          	1:05      	0.95      
100-yr          	          	1:10      	0.91      
100-yr          	          	1:15      	0.87      
100-yr          	          	1:20      	0.84      
100-yr          	          	1:25      	0.81      
100-yr          	          	1:30      	0.78      
100-yr          	          	1:35      	0.75      
100-yr          	          	1:40      	0.73      
100-yr          	          	1:45      	0.71      
100-yr          	          	1:50      	0.69      
100-yr          	          	1:55      	0.67      
;
;Rain gage for the filter strips
Null            	          	0         	0         
;
0.1-in          	          	0:00      	0.030     
0.1-in          	          	0:05      	0.034     
0.1-in          	          	0:10      	0.039     
0.1-in          	          	0:15      	0.065     
0.1-in          	          	0:20      	0.083     
0.1-in          	          	0:25      	0.160     
0.1-in          	          	0:30      	0.291     
0.1-in          	          	0:35      	0.121     
0.1-in          	          	0:40      	0.073     
0.1-in          	          	0:45      	0.043     
0.1-in          	          	0:50      	0.036     
0.1-in          	          	0:55      	0.031     
0.1-in          	          	1:00      	0.020     
0.1-in          	          	1:05      	0.019     
0.1-in          	          	1:10      	0.018     
0.1-in          	          	1:15      	0.017     
0.1-in          	          	1:20      	0.017     
0.1-in          	          	1:25      	0.016     
0.1-in          	          	1:30      	0.015     
0.1-in          	          	1:35      	0.015     
0.1-in          	          	1:40      	0.014     
0.1-in          	          	1:45      	0.014     
0.1-in          	          	1:50      	0.013     
0.1-in          	          	1:55      	0.013     
;
0.23-in         	          	0:00      	0.068     
0.23-in         	          	0:05      	0.078     
0.23-in         	          	0:10      	0.089     
0.23-in         	          	0:15      	0.150     
0.23-in         	          	0:20      	0.190     
0.23-in         	          	0:25      	0.369     
0.23-in         	          	0:30      	0.670     
0.23-in         	          	0:35      	0.277     
0.23-in         	          	0:40      	0.167     
0.23-in         	          	0:45      	0.099     
0.23-in         	          	0:50      	0.082     
0.23-in         	          	0:55      	0.071     
0.23-in         	          	1:00      	0.047     
0.23-in         	          	1:05      	0.045     
0.23-in         	          	1:10      	0.042     
0.23-in         	          	1:15      	0.040     
0.23-in         	          	1:20      	0.040     
0.23-in         	          	1:25      	0.038     
0.23-in         	          	1:30      	0.035     
0.23-in         	          	1:35      	0.035     
0.23-in         	          	1:40      	0.033     
0.23-in         	          	1:45      	0.033     
0.23-in         	          	1:50      	0.031     
0.23-in         	          	1:55      	0.031     

[PATTERNS]
;;Name          	Type      	Multipliers
;;--------------	----------	-----------
PM1             	MONTHLY   	1.0  	1.0  	1.0  	1.0  	1.0  	1.0  
PM1             	          	1.0  	1.0  	1.0  	1.0  	1.0  	1.0  

[REPORT]
;;Reporting Options
SUBCATCHMENTS	ALL
NODES	ALL
LINKS	ALL

[ADJUSTMENTS]
;;Parameter   	Subcatchment    	Monthly Adjustments
TEMPERATURE   	            	1     	1     	1     	1     	1     	1     	1     	1     	1     	1     	1     	1     
EVAPORATION   	                	1     	1     	0.0   	1     	1     	1     	0.0   	1     	1     	1     	1     	1     

[TAGS]
Link      	C1              	Swale           
Link      	C2              	Gutter          
Link      	C3              	Culvert         
Link      	C4              	Swale           
Link      	C5              	Swale           
Link      	C6              	Swale           
Link      	C7              	Culvert         
Link      	C8              	Swale           
Link      	C9              	Swale           
Link      	C10             	Swale           
Link      	C11             	Culvert         
Link      	C12             	Swale           
Link      	C13             	Gutter          
Link      	C14             	Gutter          
Link      	C15             	Swale           
Link      	C16             	Swale           
Link      	C17             	Gutter          
Link      	C_out           	Culvert         

[MAP]
DIMENSIONS	-262.777	-70.372	1644.373	1517.866
Units     	Feet

[COORDINATES]
;;Node          	X-Coord           	Y-Coord           
;;--------------	------------------	------------------
J1              	658.217           	1036.898          
J2              	1221.281          	1005.760          
J3              	405.287           	905.702           
J4              	505.345           	862.573           
J5              	631.281           	859.123           
J6              	822.772           	819.444           
J7              	831.398           	709.035           
J8              	915.930           	840.146           
J9              	1072.918          	867.749           
J10             	1254.058          	640.029           
J11             	1333.415          	519.269           
J12             	683.590           	1315.998          
J13             	1155.725          	1148.947          
J14             	1062.489          	1402.265          
J15             	122.363           	696.959           
J16             	693.739           	465.166           
J17             	504.290           	705.361           
J_out           	1557.684          	372.632           
O2              	1557.684          	293.275           
SU2             	1471.427          	458.889           

[VERTICES]
;;Link          	X-Coord           	Y-Coord           
;;--------------	------------------	------------------
C2              	1321.339          	774.591           
C2              	1374.819          	652.105           
C2              	1366.193          	588.275           
C4              	541.573           	841.871           
C5              	672.684           	850.497           
C5              	712.363           	829.795           
C5              	743.415           	805.643           
C5              	805.520           	812.544           
C6              	791.719           	734.912           
C6              	798.620           	784.942           
C8              	965.959           	838.421           
C8              	995.287           	831.520           
C8              	1038.415          	850.497           
C9              	1102.246          	867.749           
C9              	1131.573          	852.222           
C9              	1147.099          	829.795           
C9              	1162.626          	809.094           
C9              	1198.854          	779.766           
C9              	1219.556          	757.339           
C9              	1233.357          	721.111           
C9              	1238.532          	715.936           
C9              	1235.082          	674.532           
C9              	1247.158          	646.930           
C15             	146.515           	676.257           
C15             	208.620           	726.287           
C15             	239.673           	793.567           
C15             	251.749           	876.374           
C15             	291.427           	912.602           
C15             	355.257           	929.854           
C16             	553.343           	778.096           
C17             	793.538           	615.711           
C17             	849.358           	695.212           
Or2             	1580.092          	661.382           
W1              	1443.080          	113.331           

[Polygons]
;;Subcatchment  	X-Coord           	Y-Coord           
;;--------------	------------------	------------------
S5              	1301.482          	474.258           
S5              	1271.677          	445.380           
S5              	1232.340          	393.835           
S5              	1241.835          	384.340           
S5              	1222.844          	366.706           
S5              	1233.696          	355.854           
S5              	1026.159          	66.931            
S5              	1008.525          	56.079            
S5              	708.750           	275.824           
S5              	1023.446          	704.462           
S5              	1150.644          	618.812           
S5              	1251.203          	640.809           
S5              	1328.193          	519.824           
S6              	1334.478          	519.824           
S6              	1306.266          	488.956           
S6              	1293.380          	474.205           
S6              	1232.340          	393.835           
S6              	1241.835          	381.627           
S6              	1222.844          	365.350           
S6              	1232.340          	353.142           
S6              	1027.516          	65.574            
S6              	1012.595          	56.079            
S6              	707.393           	273.111           
S6              	688.403           	254.121           
S6              	739.948           	218.853           
S6              	788.780           	159.169           
S6              	806.414           	106.268           
S6              	813.197           	1.821             
S6              	994.961           	12.673            
S6              	1228.270          	27.594            
S6              	1222.844          	115.763           
S6              	1228.270          	167.308           
S6              	1241.835          	229.705           
S6              	1255.399          	254.121           
S6              	1279.815          	302.953           
S6              	1309.657          	354.498           
S6              	1335.430          	401.974           
S6              	1359.846          	448.093           
S6              	1370.616          	475.830           
S6              	1381.615          	491.542           
S7              	1122.467          	968.970           
S7              	1174.012          	987.282           
S7              	1225.557          	1005.594          
S7              	1377.480          	675.977           
S7              	1391.044          	642.065           
S7              	1396.470          	598.659           
S7              	1381.615          	491.542           
S7              	1331.336          	519.824           
S7              	1249.632          	640.809           
S7              	1150.644          	617.241           
S7              	1020.733          	704.462           
S7              	1054.645          	772.285           
S7              	1076.796          	848.212           
S7              	1056.370          	900.062           
S7              	1040.658          	937.772           
S3.1            	120.351           	1033.907          
S3.1            	182.844           	990.809           
S3.1            	179.252           	939.809           
S3.1            	168.477           	910.359           
S3.1            	169.196           	874.443           
S3.1            	177.815           	849.303           
S3.1            	212.294           	791.120           
S3.1            	209.421           	760.233           
S3.1            	187.153           	733.655           
S3.1            	131.126           	674.754           
S3.1            	181.407           	639.557           
S3.1            	205.829           	665.416           
S3.1            	284.843           	773.880           
S3.1            	316.449           	821.289           
S3.1            	360.984           	879.471           
S3.1            	372.476           	888.091           
S3.1            	422.040           	882.345           
S3.1            	440.716           	903.176           
S3.1            	427.068           	941.246           
S3.1            	380.378           	955.612           
S3.1            	304.237           	989.372           
S3.1            	210.858           	1040.372          
S3.1            	111.731           	1101.428          
S3.1            	85.872            	1062.640          
S3.2            	60.731            	1028.161          
S3.2            	42.056            	963.513           
S3.2            	36.309            	936.218           
S3.2            	35.591            	847.148           
S3.2            	65.760            	758.078           
S3.2            	94.492            	712.824           
S3.2            	133.280           	673.317           
S3.2            	209.421           	760.951           
S3.2            	213.012           	789.683           
S3.2            	187.153           	834.218           
S3.2            	169.196           	870.133           
S3.2            	167.759           	910.359           
S3.2            	179.252           	939.809           
S3.2            	183.562           	990.809           
S3.2            	85.872            	1061.203          
S3.3            	429.223           	940.528           
S3.3            	441.434           	903.894           
S3.3            	421.321           	882.345           
S3.3            	372.476           	888.809           
S3.3            	349.491           	864.387           
S3.3            	181.407           	635.966           
S3.3            	288.435           	559.107           
S3.3            	427.786           	728.627           
S3.3            	494.589           	681.219           
S3.3            	561.391           	779.627           
S3.3            	497.462           	820.570           
S3.3            	479.504           	878.035           
S3.3            	492.434           	922.570           
S4.1            	479.145           	877.474           
S4.1            	496.982           	820.292           
S4.1            	560.984           	778.323           
S4.1            	565.705           	774.651           
S4.1            	630.756           	732.158           
S4.1            	734.103           	662.910           
S4.1            	795.482           	615.171           
S4.1            	851.615           	701.731           
S4.1            	832.205           	717.994           
S4.1            	886.239           	795.111           
S4.1            	869.976           	896.360           
S4.1            	814.893           	897.934           
S4.1            	608.723           	897.409           
S4.1            	493.834           	922.590           
S4.2            	496.960           	681.280           
S4.2            	727.789           	510.814           
S4.2            	795.976           	616.447           
S4.2            	562.353           	777.971           
S4.3            	593.651           	332.522           
S4.3            	288.488           	557.203           
S4.3            	428.215           	728.229           
S4.3            	727.230           	511.932           
S4.4            	885.074           	793.461           
S4.4            	832.975           	717.597           
S4.4            	853.083           	702.059           
S4.4            	726.034           	513.770           
S4.4            	590.758           	330.051           
S4.4            	686.731           	253.273           
S4.4            	1022.178          	700.231           
S4.4            	1077.019          	849.217           
S4.4            	1040.458          	936.049           
S4.4            	938.087           	905.886           
S4.4            	871.364           	895.832           
S_FS_1          	62.886            	1032.200          
S_FS_1          	51.910            	998.722           
S_FS_1          	38.190            	947.134           
S_FS_1          	33.799            	885.666           
S_FS_1          	36.543            	845.053           
S_FS_1          	57.398            	777.549           
S_FS_1          	85.937            	726.508           
S_FS_1          	132.038           	672.724           
S_FS_1          	149.051           	694.677           
S_FS_1          	118.866           	718.276           
S_FS_1          	94.169            	754.498           
S_FS_1          	71.667            	796.757           
S_FS_1          	59.593            	841.212           
S_FS_1          	56.301            	865.360           
S_FS_1          	57.398            	926.278           
S_FS_1          	62.886            	958.659           
S_FS_1          	78.253            	1007.504          
S_FS_1          	100.755           	1049.214          
S_FS_1          	85.937            	1060.190          
S_FS_2          	191.564           	648.465           
S_FS_2          	281.651           	587.819           
S_FS_2          	294.016           	584.875           
S_FS_2          	412.366           	742.085           
S_FS_2          	494.209           	680.849           
S_FS_2          	504.808           	697.925           
S_FS_2          	424.731           	759.160           
S_FS_2          	450.638           	793.900           
S_FS_2          	431.796           	803.909           
S_FS_2          	283.418           	609.604           
S_FS_2          	203.340           	663.774           
S_FS_3          	495.739           	680.610           
S_FS_3          	712.357           	521.920           
S_FS_3          	720.080           	534.559           
S_FS_3          	506.622           	695.355           
S_FS_4          	711.164           	521.484           
S_FS_4          	427.768           	725.851           
S_FS_4          	303.049           	572.113           
S_FS_4          	304.901           	549.268           
S_FS_4          	592.619           	331.936           
S_FS_4          	606.820           	352.311           
S_FS_4          	599.411           	360.338           
S_FS_4          	328.363           	557.912           
S_FS_4          	327.746           	569.643           
S_FS_4          	420.976           	698.067           
S_FS_4          	432.707           	705.476           
S_FS_4          	701.903           	506.666           
S_FS_4          	712.399           	522.719           
S1.1            	348.357           	1409.444          
S1.1            	291.427           	1340.439          
S1.1            	312.129           	1321.462          
S1.1            	374.234           	1274.883          
S1.1            	415.637           	1257.632          
S1.1            	470.842           	1231.754          
S1.1            	582.977           	1195.526          
S1.1            	677.860           	1186.901          
S1.1            	691.661           	1318.012          
S1.1            	627.830           	1328.363          
S1.1            	545.023           	1352.515          
S1.1            	450.140           	1390.468          
S1.1            	374.234           	1445.673          
S1.2            	382.860           	1271.433          
S1.2            	477.743           	1226.579          
S1.2            	581.251           	1192.076          
S1.2            	679.585           	1186.901          
S1.2            	679.585           	1181.725          
S1.2            	670.959           	1043.713          
S1.2            	633.006           	1050.614          
S1.2            	515.696           	1071.316          
S1.2            	477.743           	1083.392          
S1.2            	370.784           	1124.795          
S1.2            	281.076           	1171.374          
S1.2            	206.895           	1224.854          
S1.2            	239.673           	1269.708          
S1.2            	291.427           	1336.988          
S1.3            	286.251           	1169.649          
S1.3            	379.409           	1121.345          
S1.3            	517.421           	1066.140          
S1.3            	669.234           	1043.713          
S1.3            	662.333           	902.251           
S1.3            	601.953           	897.076           
S1.3            	562.275           	909.152           
S1.3            	436.339           	940.205           
S1.3            	350.082           	967.807           
S1.3            	248.298           	1017.836          
S1.3            	113.737           	1100.643          
S1.3            	144.789           	1143.772          
S1.3            	206.895           	1223.129          
S2.1            	679.585           	1185.175          
S2.1            	707.187           	1181.725          
S2.1            	845.199           	1186.901          
S2.1            	986.661           	1223.129          
S2.1            	1088.444          	1257.632          
S2.1            	1117.772          	1276.608          
S2.1            	1059.117          	1397.368          
S2.1            	976.310           	1362.865          
S2.1            	824.497           	1321.462          
S2.1            	691.661           	1316.287          
S2.2            	1086.719          	1257.632          
S2.2            	995.287           	1226.579          
S2.2            	848.649           	1185.175          
S2.2            	679.585           	1180.000          
S2.2            	670.959           	1040.263          
S2.2            	867.626           	1052.339          
S2.2            	1040.140          	1093.743          
S2.2            	1162.626          	1150.673          
S2.2            	1117.772          	1274.883          
S2.3            	1047.690          	1097.579          
S2.3            	961.646           	1073.041          
S2.3            	874.526           	1050.614          
S2.3            	672.684           	1041.988          
S2.3            	664.058           	900.526           
S2.3            	871.316           	895.494           
S2.3            	937.649           	904.750           
S2.3            	1039.463          	936.631           
S2.3            	1224.579          	1006.049          
S2.3            	1163.388          	1150.542          
S_IT_1          	237.191           	1218.340          
S_IT_1          	271.519           	1195.781          
S_IT_1          	322.522           	1164.395          
S_IT_1          	415.699           	1121.239          
S_IT_1          	464.739           	1101.623          
S_IT_1          	530.944           	1084.459          
S_IT_1          	616.274           	1065.824          
S_IT_1          	661.882           	1060.920          
S_IT_1          	661.391           	1076.613          
S_IT_1          	639.323           	1079.555          
S_IT_1          	567.724           	1087.402          
S_IT_1          	507.404           	1104.566          
S_IT_1          	432.372           	1128.105          
S_IT_1          	329.878           	1175.184          
S_IT_1          	294.078           	1197.743          
S_IT_1          	246.018           	1230.109          
S_IT_2          	204.824           	1180.088          
S_IT_2          	225.912           	1166.357          
S_IT_2          	293.588           	1123.692          
S_IT_2          	355.869           	1093.777          
S_IT_2          	417.660           	1069.747          
S_IT_2          	470.624           	1051.602          
S_IT_2          	576.061           	1028.063          
S_IT_2          	655.016           	1018.254          
S_IT_2          	655.016           	1033.457          
S_IT_2          	629.025           	1037.871          
S_IT_2          	533.886           	1050.131          
S_IT_2          	416.189           	1083.969          
S_IT_2          	273.481           	1150.664          
S_IT_2          	213.652           	1192.839          
S_IT_3          	681.212           	1059.018          
S_IT_3          	784.397           	1057.381          
S_IT_3          	846.089           	1064.478          
S_IT_3          	927.436           	1080.311          
S_IT_3          	1016.973          	1108.700          
S_IT_3          	1123.979          	1150.192          
S_IT_3          	1119.066          	1160.566          
S_IT_3          	1104.325          	1154.560          
S_IT_3          	1016.427          	1119.073          
S_IT_3          	918.701           	1089.046          
S_IT_3          	790.948           	1070.483          
S_IT_3          	682.304           	1073.213          
S_IT_4          	679.947           	1019.735          
S_IT_4          	801.694           	1018.097          
S_IT_4          	918.528           	1036.113          
S_IT_4          	1035.362          	1069.416          
S_IT_4          	1138.547          	1110.363          
S_IT_4          	1133.633          	1121.828          
S_IT_4          	1047.373          	1084.703          
S_IT_4          	930.539           	1049.216          
S_IT_4          	810.975           	1032.292          
S_IT_4          	679.947           	1033.384          

[SYMBOLS]
;;Gage          	X-Coord           	Y-Coord           
;;--------------	------------------	------------------
Null            	-176.088          	1104.094          
RainGage        	-175.841          	1212.778          

[LABELS]
;;X-Coord         	Y-Coord           	Label           
323.298           	1356.594          	"S1.1"	""	"Arial"	10	1	0
260.712           	1292.317          	"S1.2"	""	"Arial"	10	1	0
140.614           	1133.314          	"S1.3"	""	"Arial"	10	1	0
698.814           	1300.774          	"S2.1"	""	"Arial"	10	1	0
688.665           	1172.219          	"S2.2"	""	"Arial"	10	1	0
683.590           	960.780           	"S2.3"	""	"Arial"	10	1	0
201.509           	979.386           	"S3.1"	""	"Arial"	10	1	0
84.794            	959.088           	"S3.2"	""	"Arial"	10	1	0
308.074           	811.927           	"S3.3"	""	"Arial"	10	1	0
678.515           	759.490           	"S4.1"	""	"Arial"	10	1	0
565.184           	715.510           	"S4.2"	""	"Arial"	10	1	0
445.087           	608.945           	"S4.3"	""	"Arial"	10	1	0
705.580           	455.017           	"S4.4"	""	"Arial"	10	1	0
986.661           	125.936           	"S5"	""	"Arial"	10	1	0
827.947           	56.930            	"S6"	""	"Arial"	10	1	0
1050.491          	733.187           	"S7"	""	"Arial"	10	1	0


[BACKDROP]
FILE      	"Site-Post-LID.jpg"
DIMENSIONS	0.000	0.000	1423.000	1475.000
